{
  "configVersion": 2,
  "packages": [
    {
      "name": "archive",
      "rootUri": "file:///home/onilio/.pub-cache/hosted/pub.dev/archive-3.4.10",
      "packageUri": "lib/",
      "languageVersion": "2.12"
    },
    {
      "name": "args",
      "rootUri": "file:///home/onilio/.pub-cache/hosted/pub.dev/args-2.4.2",
      "packageUri": "lib/",
      "languageVersion": "2.19"
    },
    {
      "name": "async",
      "rootUri": "file:///home/onilio/.pub-cache/hosted/pub.dev/async-2.11.0",
      "packageUri": "lib/",
      "languageVersion": "2.18"
    },
    {
      "name": "auto_size_text",
      "rootUri": "file:///home/onilio/.pub-cache/hosted/pub.dev/auto_size_text-3.0.0",
      "packageUri": "lib/",
      "languageVersion": "2.12"
    },
    {
      "name": "boolean_selector",
      "rootUri": "file:///home/onilio/.pub-cache/hosted/pub.dev/boolean_selector-2.1.1",
      "packageUri": "lib/",
      "languageVersion": "2.17"
    },
    {
      "name": "cached_network_image",
      "rootUri": "file:///home/onilio/.pub-cache/hosted/pub.dev/cached_network_image-3.3.1",
      "packageUri": "lib/",
      "languageVersion": "3.0"
    },
    {
      "name": "cached_network_image_platform_interface",
      "rootUri": "file:///home/onilio/.pub-cache/hosted/pub.dev/cached_network_image_platform_interface-4.0.0",
      "packageUri": "lib/",
      "languageVersion": "3.0"
    },
    {
      "name": "cached_network_image_web",
      "rootUri": "file:///home/onilio/.pub-cache/hosted/pub.dev/cached_network_image_web-1.1.1",
      "packageUri": "lib/",
      "languageVersion": "3.0"
    },
    {
      "name": "characters",
      "rootUri": "file:///home/onilio/.pub-cache/hosted/pub.dev/characters-1.3.0",
      "packageUri": "lib/",
      "languageVersion": "2.12"
    },
    {
      "name": "checked_yaml",
      "rootUri": "file:///home/onilio/.pub-cache/hosted/pub.dev/checked_yaml-2.0.3",
      "packageUri": "lib/",
      "languageVersion": "2.19"
    },
    {
      "name": "chewie",
      "rootUri": "file:///home/onilio/.pub-cache/hosted/pub.dev/chewie-1.7.1",
      "packageUri": "lib/",
      "languageVersion": "2.18"
    },
    {
      "name": "cli_util",
      "rootUri": "file:///home/onilio/.pub-cache/hosted/pub.dev/cli_util-0.4.1",
      "packageUri": "lib/",
      "languageVersion": "3.0"
    },
    {
      "name": "clock",
      "rootUri": "file:///home/onilio/.pub-cache/hosted/pub.dev/clock-1.1.1",
      "packageUri": "lib/",
      "languageVersion": "2.12"
    },
    {
      "name": "collection",
      "rootUri": "file:///home/onilio/.pub-cache/hosted/pub.dev/collection-1.18.0",
      "packageUri": "lib/",
      "languageVersion": "2.18"
    },
    {
      "name": "convert",
      "rootUri": "file:///home/onilio/.pub-cache/hosted/pub.dev/convert-3.1.1",
      "packageUri": "lib/",
      "languageVersion": "2.18"
    },
    {
      "name": "crypto",
      "rootUri": "file:///home/onilio/.pub-cache/hosted/pub.dev/crypto-3.0.3",
      "packageUri": "lib/",
      "languageVersion": "2.19"
    },
    {
      "name": "csslib",
      "rootUri": "file:///home/onilio/.pub-cache/hosted/pub.dev/csslib-1.0.0",
      "packageUri": "lib/",
      "languageVersion": "2.19"
    },
    {
      "name": "cupertino_icons",
      "rootUri": "file:///home/onilio/.pub-cache/hosted/pub.dev/cupertino_icons-1.0.6",
      "packageUri": "lib/",
      "languageVersion": "2.19"
    },
    {
      "name": "dbus",
      "rootUri": "file:///home/onilio/.pub-cache/hosted/pub.dev/dbus-0.7.10",
      "packageUri": "lib/",
      "languageVersion": "2.17"
    },
    {
      "name": "device_imei",
      "rootUri": "file:///home/onilio/.pub-cache/hosted/pub.dev/device_imei-0.0.4+2",
      "packageUri": "lib/",
      "languageVersion": "2.19"
    },
    {
      "name": "device_info",
      "rootUri": "file:///home/onilio/.pub-cache/hosted/pub.dev/device_info-2.0.3",
      "packageUri": "lib/",
      "languageVersion": "2.12"
    },
    {
      "name": "device_info_platform_interface",
      "rootUri": "file:///home/onilio/.pub-cache/hosted/pub.dev/device_info_platform_interface-2.0.1",
      "packageUri": "lib/",
      "languageVersion": "2.12"
    },
    {
      "name": "equatable",
      "rootUri": "file:///home/onilio/.pub-cache/hosted/pub.dev/equatable-2.0.5",
      "packageUri": "lib/",
      "languageVersion": "2.12"
    },
    {
      "name": "fake_async",
      "rootUri": "file:///home/onilio/.pub-cache/hosted/pub.dev/fake_async-1.3.1",
      "packageUri": "lib/",
      "languageVersion": "2.12"
    },
    {
      "name": "ffi",
      "rootUri": "file:///home/onilio/.pub-cache/hosted/pub.dev/ffi-2.1.2",
      "packageUri": "lib/",
      "languageVersion": "3.3"
    },
    {
      "name": "file",
      "rootUri": "file:///home/onilio/.pub-cache/hosted/pub.dev/file-7.0.0",
      "packageUri": "lib/",
      "languageVersion": "3.0"
    },
    {
      "name": "fixnum",
      "rootUri": "file:///home/onilio/.pub-cache/hosted/pub.dev/fixnum-1.1.0",
      "packageUri": "lib/",
      "languageVersion": "2.19"
    },
    {
      "name": "flutter",
      "rootUri": "file:///home/onilio/flutter/flutter/packages/flutter",
      "packageUri": "lib/",
      "languageVersion": "3.2"
    },
    {
      "name": "flutter_animate",
      "rootUri": "file:///home/onilio/.pub-cache/hosted/pub.dev/flutter_animate-4.1.1+1",
      "packageUri": "lib/",
      "languageVersion": "2.17"
    },
    {
      "name": "flutter_cache_manager",
      "rootUri": "file:///home/onilio/.pub-cache/hosted/pub.dev/flutter_cache_manager-3.3.1",
      "packageUri": "lib/",
      "languageVersion": "2.17"
    },
    {
      "name": "flutter_launcher_icons",
      "rootUri": "file:///home/onilio/.pub-cache/hosted/pub.dev/flutter_launcher_icons-0.13.1",
      "packageUri": "lib/",
      "languageVersion": "2.18"
    },
    {
      "name": "flutter_lints",
      "rootUri": "file:///home/onilio/.pub-cache/hosted/pub.dev/flutter_lints-3.0.0",
      "packageUri": "lib/",
      "languageVersion": "3.0"
    },
    {
      "name": "flutter_localizations",
      "rootUri": "file:///home/onilio/flutter/flutter/packages/flutter_localizations",
      "packageUri": "lib/",
      "languageVersion": "3.2"
    },
    {
      "name": "flutter_native_splash",
      "rootUri": "file:///home/onilio/.pub-cache/hosted/pub.dev/flutter_native_splash-2.3.1",
      "packageUri": "lib/",
      "languageVersion": "2.19"
    },
    {
      "name": "flutter_rating_bar",
      "rootUri": "file:///home/onilio/.pub-cache/hosted/pub.dev/flutter_rating_bar-4.0.1",
      "packageUri": "lib/",
      "languageVersion": "2.14"
    },
    {
      "name": "flutter_test",
      "rootUri": "file:///home/onilio/flutter/flutter/packages/flutter_test",
      "packageUri": "lib/",
      "languageVersion": "3.2"
    },
    {
      "name": "flutter_web_plugins",
      "rootUri": "file:///home/onilio/flutter/flutter/packages/flutter_web_plugins",
      "packageUri": "lib/",
      "languageVersion": "3.2"
    },
    {
      "name": "font_awesome_flutter",
      "rootUri": "file:///home/onilio/.pub-cache/hosted/pub.dev/font_awesome_flutter-10.6.0",
      "packageUri": "lib/",
      "languageVersion": "3.0"
    },
    {
      "name": "from_css_color",
      "rootUri": "file:///home/onilio/.pub-cache/hosted/pub.dev/from_css_color-2.0.0",
      "packageUri": "lib/",
      "languageVersion": "2.12"
    },
    {
      "name": "get_mac_address",
      "rootUri": "file:///home/onilio/.pub-cache/hosted/pub.dev/get_mac_address-0.0.2",
      "packageUri": "lib/",
      "languageVersion": "2.17"
    },
    {
      "name": "go_router",
      "rootUri": "file:///home/onilio/.pub-cache/hosted/pub.dev/go_router-7.1.1",
      "packageUri": "lib/",
      "languageVersion": "2.18"
    },
    {
      "name": "google_fonts",
      "rootUri": "file:///home/onilio/.pub-cache/hosted/pub.dev/google_fonts-6.1.0",
      "packageUri": "lib/",
      "languageVersion": "2.14"
    },
    {
      "name": "html",
      "rootUri": "file:///home/onilio/.pub-cache/hosted/pub.dev/html-0.15.4",
      "packageUri": "lib/",
      "languageVersion": "2.19"
    },
    {
      "name": "http",
      "rootUri": "file:///home/onilio/.pub-cache/hosted/pub.dev/http-1.2.0",
      "packageUri": "lib/",
      "languageVersion": "3.2"
    },
    {
      "name": "http_parser",
      "rootUri": "file:///home/onilio/.pub-cache/hosted/pub.dev/http_parser-4.0.2",
      "packageUri": "lib/",
      "languageVersion": "2.12"
    },
    {
      "name": "image",
      "rootUri": "file:///home/onilio/.pub-cache/hosted/pub.dev/image-4.0.17",
      "packageUri": "lib/",
      "languageVersion": "2.15"
    },
    {
      "name": "intl",
      "rootUri": "file:///home/onilio/.pub-cache/hosted/pub.dev/intl-0.18.1",
      "packageUri": "lib/",
      "languageVersion": "2.12"
    },
    {
      "name": "iregexp",
      "rootUri": "file:///home/onilio/.pub-cache/hosted/pub.dev/iregexp-0.1.1",
      "packageUri": "lib/",
      "languageVersion": "2.19"
    },
    {
      "name": "js",
      "rootUri": "file:///home/onilio/.pub-cache/hosted/pub.dev/js-0.6.7",
      "packageUri": "lib/",
      "languageVersion": "2.19"
    },
    {
      "name": "json_annotation",
      "rootUri": "file:///home/onilio/.pub-cache/hosted/pub.dev/json_annotation-4.8.1",
      "packageUri": "lib/",
      "languageVersion": "2.19"
    },
    {
      "name": "json_path",
      "rootUri": "file:///home/onilio/.pub-cache/hosted/pub.dev/json_path-0.6.2",
      "packageUri": "lib/",
      "languageVersion": "3.0"
    },
    {
      "name": "leak_tracker",
      "rootUri": "file:///home/onilio/.pub-cache/hosted/pub.dev/leak_tracker-10.0.0",
      "packageUri": "lib/",
      "languageVersion": "3.1"
    },
    {
      "name": "leak_tracker_flutter_testing",
      "rootUri": "file:///home/onilio/.pub-cache/hosted/pub.dev/leak_tracker_flutter_testing-2.0.1",
      "packageUri": "lib/",
      "languageVersion": "3.1"
    },
    {
      "name": "leak_tracker_testing",
      "rootUri": "file:///home/onilio/.pub-cache/hosted/pub.dev/leak_tracker_testing-2.0.1",
      "packageUri": "lib/",
      "languageVersion": "3.1"
    },
    {
      "name": "lints",
      "rootUri": "file:///home/onilio/.pub-cache/hosted/pub.dev/lints-3.0.0",
      "packageUri": "lib/",
      "languageVersion": "3.0"
    },
    {
      "name": "logging",
      "rootUri": "file:///home/onilio/.pub-cache/hosted/pub.dev/logging-1.2.0",
      "packageUri": "lib/",
      "languageVersion": "2.19"
    },
    {
      "name": "matcher",
      "rootUri": "file:///home/onilio/.pub-cache/hosted/pub.dev/matcher-0.12.16+1",
      "packageUri": "lib/",
      "languageVersion": "3.0"
    },
    {
      "name": "material_color_utilities",
      "rootUri": "file:///home/onilio/.pub-cache/hosted/pub.dev/material_color_utilities-0.8.0",
      "packageUri": "lib/",
      "languageVersion": "2.17"
    },
    {
      "name": "maybe_just_nothing",
      "rootUri": "file:///home/onilio/.pub-cache/hosted/pub.dev/maybe_just_nothing-0.5.3",
      "packageUri": "lib/",
      "languageVersion": "2.12"
    },
    {
      "name": "meta",
      "rootUri": "file:///home/onilio/.pub-cache/hosted/pub.dev/meta-1.11.0",
      "packageUri": "lib/",
      "languageVersion": "2.12"
    },
    {
      "name": "mime_type",
      "rootUri": "file:///home/onilio/.pub-cache/hosted/pub.dev/mime_type-1.0.0",
      "packageUri": "lib/",
      "languageVersion": "2.12"
    },
    {
      "name": "nested",
      "rootUri": "file:///home/onilio/.pub-cache/hosted/pub.dev/nested-1.0.0",
      "packageUri": "lib/",
      "languageVersion": "2.12"
    },
    {
      "name": "octo_image",
      "rootUri": "file:///home/onilio/.pub-cache/hosted/pub.dev/octo_image-2.0.0",
      "packageUri": "lib/",
      "languageVersion": "2.12"
    },
    {
      "name": "package_info_plus",
      "rootUri": "file:///home/onilio/.pub-cache/hosted/pub.dev/package_info_plus-5.0.1",
      "packageUri": "lib/",
      "languageVersion": "3.2"
    },
    {
      "name": "package_info_plus_platform_interface",
      "rootUri": "file:///home/onilio/.pub-cache/hosted/pub.dev/package_info_plus_platform_interface-2.0.1",
      "packageUri": "lib/",
      "languageVersion": "2.12"
    },
    {
      "name": "page_transition",
      "rootUri": "file:///home/onilio/.pub-cache/hosted/pub.dev/page_transition-2.1.0",
      "packageUri": "lib/",
      "languageVersion": "2.17"
    },
    {
      "name": "path",
      "rootUri": "file:///home/onilio/.pub-cache/hosted/pub.dev/path-1.9.0",
      "packageUri": "lib/",
      "languageVersion": "3.0"
    },
    {
      "name": "path_provider",
      "rootUri": "file:///home/onilio/.pub-cache/hosted/pub.dev/path_provider-2.0.14",
      "packageUri": "lib/",
      "languageVersion": "2.17"
    },
    {
      "name": "path_provider_android",
      "rootUri": "file:///home/onilio/.pub-cache/hosted/pub.dev/path_provider_android-2.0.25",
      "packageUri": "lib/",
      "languageVersion": "2.17"
    },
    {
      "name": "path_provider_foundation",
      "rootUri": "file:///home/onilio/.pub-cache/hosted/pub.dev/path_provider_foundation-2.2.2",
      "packageUri": "lib/",
      "languageVersion": "2.18"
    },
    {
      "name": "path_provider_linux",
      "rootUri": "file:///home/onilio/.pub-cache/hosted/pub.dev/path_provider_linux-2.1.11",
      "packageUri": "lib/",
      "languageVersion": "2.18"
    },
    {
      "name": "path_provider_platform_interface",
      "rootUri": "file:///home/onilio/.pub-cache/hosted/pub.dev/path_provider_platform_interface-2.0.6",
      "packageUri": "lib/",
      "languageVersion": "2.12"
    },
    {
      "name": "path_provider_windows",
      "rootUri": "file:///home/onilio/.pub-cache/hosted/pub.dev/path_provider_windows-2.1.7",
      "packageUri": "lib/",
      "languageVersion": "2.18"
    },
    {
      "name": "petitparser",
      "rootUri": "file:///home/onilio/.pub-cache/hosted/pub.dev/petitparser-5.4.0",
      "packageUri": "lib/",
      "languageVersion": "2.19"
    },
    {
      "name": "platform",
      "rootUri": "file:///home/onilio/.pub-cache/hosted/pub.dev/platform-3.1.4",
      "packageUri": "lib/",
      "languageVersion": "3.0"
    },
    {
      "name": "plugin_platform_interface",
      "rootUri": "file:///home/onilio/.pub-cache/hosted/pub.dev/plugin_platform_interface-2.1.8",
      "packageUri": "lib/",
      "languageVersion": "3.0"
    },
    {
      "name": "pointycastle",
      "rootUri": "file:///home/onilio/.pub-cache/hosted/pub.dev/pointycastle-3.7.4",
      "packageUri": "lib/",
      "languageVersion": "3.0"
    },
    {
      "name": "provider",
      "rootUri": "file:///home/onilio/.pub-cache/hosted/pub.dev/provider-6.0.5",
      "packageUri": "lib/",
      "languageVersion": "2.12"
    },
    {
      "name": "rfc_6901",
      "rootUri": "file:///home/onilio/.pub-cache/hosted/pub.dev/rfc_6901-0.1.1",
      "packageUri": "lib/",
      "languageVersion": "2.15"
    },
    {
      "name": "rxdart",
      "rootUri": "file:///home/onilio/.pub-cache/hosted/pub.dev/rxdart-0.27.7",
      "packageUri": "lib/",
      "languageVersion": "2.12"
    },
    {
      "name": "shared_preferences",
      "rootUri": "file:///home/onilio/.pub-cache/hosted/pub.dev/shared_preferences-2.2.2",
      "packageUri": "lib/",
      "languageVersion": "2.19"
    },
    {
      "name": "shared_preferences_android",
      "rootUri": "file:///home/onilio/.pub-cache/hosted/pub.dev/shared_preferences_android-2.2.1",
      "packageUri": "lib/",
      "languageVersion": "2.19"
    },
    {
      "name": "shared_preferences_foundation",
      "rootUri": "file:///home/onilio/.pub-cache/hosted/pub.dev/shared_preferences_foundation-2.3.4",
      "packageUri": "lib/",
      "languageVersion": "2.19"
    },
    {
      "name": "shared_preferences_linux",
      "rootUri": "file:///home/onilio/.pub-cache/hosted/pub.dev/shared_preferences_linux-2.3.2",
      "packageUri": "lib/",
      "languageVersion": "2.19"
    },
    {
      "name": "shared_preferences_platform_interface",
      "rootUri": "file:///home/onilio/.pub-cache/hosted/pub.dev/shared_preferences_platform_interface-2.3.1",
      "packageUri": "lib/",
      "languageVersion": "2.19"
    },
    {
      "name": "shared_preferences_web",
      "rootUri": "file:///home/onilio/.pub-cache/hosted/pub.dev/shared_preferences_web-2.2.1",
      "packageUri": "lib/",
      "languageVersion": "2.19"
    },
    {
      "name": "shared_preferences_windows",
      "rootUri": "file:///home/onilio/.pub-cache/hosted/pub.dev/shared_preferences_windows-2.3.2",
      "packageUri": "lib/",
      "languageVersion": "2.19"
    },
    {
      "name": "simple_gesture_detector",
      "rootUri": "file:///home/onilio/.pub-cache/hosted/pub.dev/simple_gesture_detector-0.2.1",
      "packageUri": "lib/",
      "languageVersion": "2.12"
    },
    {
      "name": "sky_engine",
      "rootUri": "file:///home/onilio/flutter/flutter/bin/cache/pkg/sky_engine",
      "packageUri": "lib/",
      "languageVersion": "3.2"
    },
    {
      "name": "source_span",
      "rootUri": "file:///home/onilio/.pub-cache/hosted/pub.dev/source_span-1.10.0",
      "packageUri": "lib/",
      "languageVersion": "2.18"
    },
    {
      "name": "sprintf",
      "rootUri": "file:///home/onilio/.pub-cache/hosted/pub.dev/sprintf-7.0.0",
      "packageUri": "lib/",
      "languageVersion": "2.12"
    },
    {
      "name": "sqflite",
      "rootUri": "file:///home/onilio/.pub-cache/hosted/pub.dev/sqflite-2.2.6",
      "packageUri": "lib/",
      "languageVersion": "2.18"
    },
    {
      "name": "sqflite_common",
      "rootUri": "file:///home/onilio/.pub-cache/hosted/pub.dev/sqflite_common-2.5.4",
      "packageUri": "lib/",
      "languageVersion": "3.3"
    },
    {
      "name": "stack_trace",
      "rootUri": "file:///home/onilio/.pub-cache/hosted/pub.dev/stack_trace-1.11.1",
      "packageUri": "lib/",
      "languageVersion": "2.18"
    },
    {
      "name": "stream_channel",
      "rootUri": "file:///home/onilio/.pub-cache/hosted/pub.dev/stream_channel-2.1.2",
      "packageUri": "lib/",
      "languageVersion": "2.19"
    },
    {
      "name": "string_scanner",
      "rootUri": "file:///home/onilio/.pub-cache/hosted/pub.dev/string_scanner-1.2.0",
      "packageUri": "lib/",
      "languageVersion": "2.18"
    },
    {
      "name": "synchronized",
      "rootUri": "file:///home/onilio/.pub-cache/hosted/pub.dev/synchronized-3.1.0+1",
      "packageUri": "lib/",
      "languageVersion": "3.0"
    },
    {
      "name": "table_calendar",
      "rootUri": "file:///home/onilio/.pub-cache/hosted/pub.dev/table_calendar-3.0.9",
      "packageUri": "lib/",
      "languageVersion": "2.12"
    },
    {
      "name": "term_glyph",
      "rootUri": "file:///home/onilio/.pub-cache/hosted/pub.dev/term_glyph-1.2.1",
      "packageUri": "lib/",
      "languageVersion": "2.12"
    },
    {
      "name": "test_api",
      "rootUri": "file:///home/onilio/.pub-cache/hosted/pub.dev/test_api-0.6.1",
      "packageUri": "lib/",
      "languageVersion": "3.0"
    },
    {
      "name": "timeago",
      "rootUri": "file:///home/onilio/.pub-cache/hosted/pub.dev/timeago-3.2.2",
      "packageUri": "lib/",
      "languageVersion": "2.12"
    },
    {
      "name": "typed_data",
      "rootUri": "file:///home/onilio/.pub-cache/hosted/pub.dev/typed_data-1.3.2",
      "packageUri": "lib/",
      "languageVersion": "2.17"
    },
    {
      "name": "universal_io",
      "rootUri": "file:///home/onilio/.pub-cache/hosted/pub.dev/universal_io-2.2.2",
      "packageUri": "lib/",
      "languageVersion": "2.17"
    },
    {
      "name": "url_launcher",
      "rootUri": "file:///home/onilio/.pub-cache/hosted/pub.dev/url_launcher-6.2.5",
      "packageUri": "lib/",
      "languageVersion": "3.2"
    },
    {
      "name": "url_launcher_android",
      "rootUri": "file:///home/onilio/.pub-cache/hosted/pub.dev/url_launcher_android-6.3.0",
      "packageUri": "lib/",
      "languageVersion": "3.0"
    },
    {
      "name": "url_launcher_ios",
      "rootUri": "file:///home/onilio/.pub-cache/hosted/pub.dev/url_launcher_ios-6.2.5",
      "packageUri": "lib/",
      "languageVersion": "3.2"
    },
    {
      "name": "url_launcher_linux",
      "rootUri": "file:///home/onilio/.pub-cache/hosted/pub.dev/url_launcher_linux-3.1.1",
      "packageUri": "lib/",
      "languageVersion": "3.0"
    },
    {
      "name": "url_launcher_macos",
      "rootUri": "file:///home/onilio/.pub-cache/hosted/pub.dev/url_launcher_macos-3.1.0",
      "packageUri": "lib/",
      "languageVersion": "2.19"
    },
    {
      "name": "url_launcher_platform_interface",
      "rootUri": "file:///home/onilio/.pub-cache/hosted/pub.dev/url_launcher_platform_interface-2.3.2",
      "packageUri": "lib/",
      "languageVersion": "3.1"
    },
    {
      "name": "url_launcher_web",
      "rootUri": "file:///home/onilio/.pub-cache/hosted/pub.dev/url_launcher_web-2.2.3",
      "packageUri": "lib/",
      "languageVersion": "3.2"
    },
    {
      "name": "url_launcher_windows",
      "rootUri": "file:///home/onilio/.pub-cache/hosted/pub.dev/url_launcher_windows-3.1.1",
      "packageUri": "lib/",
      "languageVersion": "3.0"
    },
    {
      "name": "uuid",
      "rootUri": "file:///home/onilio/.pub-cache/hosted/pub.dev/uuid-4.3.3",
      "packageUri": "lib/",
      "languageVersion": "3.0"
    },
    {
      "name": "vector_math",
      "rootUri": "file:///home/onilio/.pub-cache/hosted/pub.dev/vector_math-2.1.4",
      "packageUri": "lib/",
      "languageVersion": "2.14"
    },
    {
      "name": "video_player",
      "rootUri": "file:///home/onilio/.pub-cache/hosted/pub.dev/video_player-2.8.1",
      "packageUri": "lib/",
      "languageVersion": "3.1"
    },
    {
      "name": "video_player_android",
      "rootUri": "file:///home/onilio/.pub-cache/hosted/pub.dev/video_player_android-2.4.10",
      "packageUri": "lib/",
      "languageVersion": "2.19"
    },
    {
      "name": "video_player_avfoundation",
      "rootUri": "file:///home/onilio/.pub-cache/hosted/pub.dev/video_player_avfoundation-2.5.1",
      "packageUri": "lib/",
      "languageVersion": "3.1"
    },
    {
      "name": "video_player_platform_interface",
      "rootUri": "file:///home/onilio/.pub-cache/hosted/pub.dev/video_player_platform_interface-6.2.1",
      "packageUri": "lib/",
      "languageVersion": "2.19"
    },
    {
      "name": "video_player_web",
      "rootUri": "file:///home/onilio/.pub-cache/hosted/pub.dev/video_player_web-2.1.2",
      "packageUri": "lib/",
      "languageVersion": "3.1"
    },
    {
      "name": "vm_service",
      "rootUri": "file:///home/onilio/.pub-cache/hosted/pub.dev/vm_service-13.0.0",
      "packageUri": "lib/",
      "languageVersion": "3.0"
    },
    {
      "name": "wakelock_plus",
      "rootUri": "file:///home/onilio/.pub-cache/hosted/pub.dev/wakelock_plus-1.1.4",
      "packageUri": "lib/",
      "languageVersion": "2.18"
    },
    {
      "name": "wakelock_plus_platform_interface",
      "rootUri": "file:///home/onilio/.pub-cache/hosted/pub.dev/wakelock_plus_platform_interface-1.2.1",
      "packageUri": "lib/",
      "languageVersion": "3.3"
    },
    {
      "name": "web",
      "rootUri": "file:///home/onilio/.pub-cache/hosted/pub.dev/web-0.4.2",
      "packageUri": "lib/",
      "languageVersion": "3.2"
    },
    {
      "name": "wifi_info_flutter",
      "rootUri": "file:///home/onilio/.pub-cache/hosted/pub.dev/wifi_info_flutter-2.0.2",
      "packageUri": "lib/",
      "languageVersion": "2.12"
    },
    {
      "name": "wifi_info_flutter_platform_interface",
      "rootUri": "file:///home/onilio/.pub-cache/hosted/pub.dev/wifi_info_flutter_platform_interface-2.0.1",
      "packageUri": "lib/",
      "languageVersion": "2.12"
    },
    {
      "name": "win32",
      "rootUri": "file:///home/onilio/.pub-cache/hosted/pub.dev/win32-5.4.0",
      "packageUri": "lib/",
      "languageVersion": "3.3"
    },
    {
      "name": "xdg_directories",
      "rootUri": "file:///home/onilio/.pub-cache/hosted/pub.dev/xdg_directories-1.0.4",
      "packageUri": "lib/",
      "languageVersion": "3.0"
    },
    {
      "name": "xml",
      "rootUri": "file:///home/onilio/.pub-cache/hosted/pub.dev/xml-6.3.0",
      "packageUri": "lib/",
      "languageVersion": "2.19"
    },
    {
      "name": "yaml",
      "rootUri": "file:///home/onilio/.pub-cache/hosted/pub.dev/yaml-3.1.2",
      "packageUri": "lib/",
      "languageVersion": "2.19"
    },
    {
      "name": "school",
      "rootUri": "../",
      "packageUri": "lib/",
      "languageVersion": "3.0"
    }
  ],
  "generated": "2024-04-10T00:37:43.846888Z",
  "generator": "pub",
  "generatorVersion": "3.3.3"
}
